{
    "variables": {
        "name": "golden_image",
        "source_ami": "ami-0a313d6098716f372",
        "region": "us-east-1",
        "aws_access_key": "",
        "aws_secret_key": ""
    },

    "provisioners": [
    {
        "type": "ansible",
        "playbook_file": "./ansible/playbook.yml",
        "extra_arguments": [
            "--extra-vars",
            "ansible_python_interpreter=/usr/bin/python3"
        ]
    }
    ],
  
    "builders": [
        {
          "type":          "amazon-ebs",
          "ssh_username":  "ubuntu",
          "access_key":    "{{user `aws_access_key`}}",
          "secret_key":    "{{user `aws_secret_key`}}",
          "ami_name":      "{{user `name`}}",
          "region":        "{{user `region`}}",
          "source_ami":    "{{user `source_ami`}}",
          "instance_type": "t2.micro",
          "run_tags":      { "purpose": "demo" }
        }
    ]    

  }